{"160431": [[19, 218]],
 "160577": [[254, 306]],
 "160578": [[10, 39], [46, 49], [52, 53], [274, 275], [287, 287], [290, 319], [328, 381], [398, 400]],
 "160871": [[68, 100], [114, 123], [126, 127], [130, 133], [135, 139], [146, 155], [162, 171], [174, 208]],
 "160872": [[1, 9], [25, 35], [38, 55]],
 "160873": [[1, 147]],
 "160874": [[1, 51], [97, 113]],
 "160939": [[1, 36], [53, 72], [78, 123]],
 "160940": [[1, 8], [17, 24], [43, 48], [63, 70], [73, 79]],
 "160942": [[1, 12]],
 "160943": [[1, 54]],
 "160955": [[1, 99], [108, 130], [133, 138], [140, 151], [153, 154], [156, 172], [175, 187], [189, 192], [200, 201], [204, 206]],
 "160956": [[2, 51], [60, 65]],
 "160957": [[1, 953]],
 "160998": [[2, 16], [22, 33], [37, 252]],
 "161008": [[2, 77]],
 "161016": [[2, 300]],
 "161103": [[6, 19], [23, 33], [40, 100]],
 "161106": [[2, 26]],
 "161107": [[2, 29]],
 "161113": [[2, 24]],
 "161116": [[2, 11]],
 "161117": [[2, 24]],
 "161119": [[1, 1], [7, 58], [69, 108], [115, 141], [145, 173], [179, 210]],
 "161156": [[1, 14]],
 "161176": [[1, 31]],
 "161217": [[37, 85], [88, 263], [265, 267], [271, 348], [352, 358], [364, 372], [386, 399], [408, 411], [418, 426], [430, 435], [438, 447], [461, 493], [499, 503], [508, 513], [521, 554], [563, 627], [629, 641], [644, 647], [652, 655], [662, 709], [714, 753]],
 "161222": [[1, 20], [33, 36], [45, 48], [53, 84], [89, 97]],
 "161223": [[1, 8], [10, 13], [21, 37], [42, 45], [51, 79], [82, 121], [126, 149], [158, 161], [166, 169], [174, 177], [182, 229], [238, 261], [264, 279], [284, 287], [296, 299], [312, 315], [324, 327], [332, 363], [372, 375]],
 "161233": [[33, 33]],
 "161310": [[39, 39], [42, 69], [71, 88], [92, 103], [105, 116]],
 "161311": [[1, 190], [192, 206], [208, 554], [559, 649]],
 "161312": [[1, 826], [835, 1027]],
 "162762": [[1, 102]],
 "162765": [[1, 40]],
 "162803": [[60, 139]],
 "162808": [[1, 14], [17, 51]],
 "162811": [[1, 8], [11, 40], [49, 145], [154, 301], [306, 308], [312, 317], [319, 340]],
 "162822": [[73, 84], [92, 93], [97, 100], [103, 156], [160, 168], [170, 191], [193, 213], [215, 222], [226, 234], [236, 252], [256, 285], [288, 307]],
 "162825": [[1, 48], [57, 114], [125, 132], [136, 184]],
 "162826": [[1, 24]],
 "162828": [[9, 32], [41, 85]],
 "162909": [[54, 66], [68, 69], [71, 71], [74, 91], [93, 99], [101, 103], [105, 108], [110, 110], [112, 113], [115, 118], [120, 150], [153, 154], [158, 158], [161, 162], [165, 167], [171, 171], [173, 208], [210, 210], [213, 213], [215, 236], [238, 245], [247, 268], [270, 290]],
 "163046": [[1, 8], [10, 13], [15, 62], [66, 114], [117, 120], [122, 133], [135, 166], [168, 169], [171, 172], [174, 176], [186, 189], [193, 197], [201, 202], [210, 227], [230, 238]],
 "163069": [[73, 97], [99, 99], [101, 101], [105, 110], [112, 117], [119, 137], [139, 154], [156, 184], [186, 208], [217, 223], [225, 248], [255, 274], [277, 284], [287, 288], [290, 295], [298, 326], [328, 334], [336, 369], [376, 381], [383, 452], [468, 503], [506, 530], [541, 541], [543, 543], [545, 548], [550, 552], [557, 557], [563, 568], [570, 633]],
 "163071": [[9, 61], [65, 70], [74, 76], [89, 97], [105, 106], [116, 121], [129, 140], [142, 150], [158, 160]],
 "163078": [[1, 23]],
 "163232": [[110, 110], [113, 149]],
 "163233": [[1, 17], [19, 31], [34, 283]],
 "163234": [[1, 33], [42, 66]],
 "163235": [[1, 42], [44, 461]],
 "163237": [[1, 24], [33, 68], [73, 80], [84, 92], [97, 128], [133, 148], [153, 184], [189, 200], [213, 213]],
 "163238": [[9, 15]],
 "163252": [[60, 69], [71, 78], [80, 80], [82, 137]],
 "163255": [[1, 59], [61, 61], [64, 98], [100, 123], [125, 158], [160, 193], [195, 259], [261, 266], [270, 275], [281, 284], [288, 311], [315, 359], [412, 464], [466, 466], [468, 486], [488, 490], [492, 524], [526, 554], [556, 657], [659, 693], [696, 696], [698, 823], [825, 844], [846, 846], [848, 882], [884, 977]],
 "163261": [[1, 3], [10, 84], [95, 97], [99, 100], [106, 126]],
 "163270": [[1, 76], [79, 96], [99, 156], [160, 255], [261, 411], [420, 475], [479, 527], [529, 593], [602, 685], [695, 928]],
 "163286": [[112, 134], [151, 176], [185, 186], [193, 219], [222, 243], [247, 251], [261, 268], [277, 282], [287, 367], [376, 401]],
 "163289": [[1, 388]],
 "163296": [[59, 80], [85, 92], [95, 96], [103, 110], [117, 120], [123, 128], [149, 192], [201, 230], [232, 243], [247, 255], [261, 297], [306, 574], [577, 577]],
 "163297": [[1, 32], [41, 46], [55, 132], [137, 139], [152, 169], [178, 219]],
 "163300": [[1, 89], [91, 98], [106, 210], [219, 274], [283, 616]],
 "163301": [[1, 192]],
 "163302": [[1, 190]],
 "163332": [[43, 51], [62, 63], [68, 69], [73, 104], [106, 118], [224, 264], [266, 370], [377, 380], [383, 384], [387, 445], [449, 450], [454, 510], [514, 514], [523, 534], [540, 550], [559, 599], [601, 639], [641, 801]],
 "163333": [[1, 95], [104, 106]],
 "163334": [[1, 35], [37, 37], [156, 556]],
 "163337": [[1, 18], [27, 201], [203, 426], [434, 461]],
 "163338": [[1, 164]],
 "163339": [[1, 172]],
 "163340": [[1, 488]],
 "163358": [[39, 63]],
 "163369": [[1, 27], [32, 41], [46, 94]],
 "163370": [[1, 16], [25, 147]],
 "163371": [[1, 107], [148, 356]],
 "163372": [[1, 52]],
 "163374": [[1, 94], [98, 599], [603, 733], [737, 764], [767, 838], [845, 859]],
 "163375": [[1, 10]],
 "163376": [[1, 20], [22, 246]],
 "163378": [[1, 81], [89, 179], [181, 272], [306, 615]],
 "163385": [[52, 77], [86, 131], [152, 152], [157, 228], [231, 240], [244, 245], [249, 260], [267, 272], [280, 405]],
 "163387": [[1, 256]],
 "163402": [[37, 250], [271, 359], [364, 366], [370, 443], [445, 492], [496, 507], [517, 548], [557, 558], [581, 582], [586, 592], [601, 606], [609, 618], [622, 636], [639, 660], [663, 801]],
 "163475": [[30, 42], [51, 86], [89, 90], [93, 96], [101, 229], [238, 295]],
 "163476": [[1, 94], [98, 212]],
 "163478": [[1, 70]],
 "163479": [[1, 61], [65, 73], [77, 79], [82, 124], [128, 154], [160, 175]],
 "163480": [[1, 92], [96, 188], [190, 191]],
 "163481": [[1, 72], [74, 77], [79, 79]],
 "163482": [[1, 27], [48, 48]],
 "163483": [[1, 57]],
 "163582": [[1, 10], [12, 22]],
 "163583": [[1, 10], [12, 21], [23, 24], [26, 55], [57, 57], [59, 63], [66, 86], [88, 92], [96, 115], [117, 117], [126, 129], [138, 155], [157, 173], [175, 178], [182, 184], [186, 191], [193, 193], [202, 205]],
 "163584": [[1, 56]],
 "163585": [[1, 32]],
 "163586": [[9, 73]],
 "163587": [[1, 16], [25, 52]],
 "163588": [[1, 8], [10, 74], [81, 92], [99, 145], [150, 166], [175, 225], [228, 232], [243, 406], [411, 419], [423, 446]],
 "163589": [[1, 49], [51, 60], [64, 107], [116, 122], [128, 160]],
 "163596": [[1, 29]],
 "163630": [[76, 96], [98, 98], [100, 164], [176, 185]],
 "163655": [[15, 23]],
 "163657": [[1, 21], [23, 28], [30, 32], [34, 40], [42, 113], [115, 140]],
 "163658": [[1, 3]],
 "163659": [[1, 374], [376, 650], [652, 705]],
 "163660": [[1, 74]],
 "163661": [[1, 17]],
 "163662": [[1, 107], [116, 154]],
 "163663": [[1, 72], [81, 106], [109, 246]],
 "163664": [[1, 119], [121, 178]],
 "163668": [[1, 53], [57, 136], [140, 213]],
 "163738": [[34, 50], [59, 91], [102, 111], [124, 125], [128, 135], [142, 143], [146, 153], [164, 179], [184, 185], [190, 213], [215, 217], [226, 265], [270, 277], [280, 281], [288, 289], [292, 293], [296, 311]],
 "163757": [[1, 3], [6, 18], [33, 40]],
 "163758": [[1, 17], [19, 94], [96, 114], [116, 160], [162, 217], [219, 220], [222, 224], [236, 276], [283, 294], [296, 374], [376, 430], [433, 465], [468, 495], [504, 542], [545, 556], [560, 562], [566, 591]],
 "163759": [[1, 60], [62, 72], [74, 366], [375, 456], [465, 482], [504, 510]],
 "163760": [[1, 162], [165, 340]],
 "163761": [[1, 107], [116, 144], [153, 203]],
 "163763": [[1, 79]],
 "163765": [[1, 196], [208, 210], [216, 242], [245, 251], [255, 266], [270, 288], [297, 321]],
 "163795": [[10, 34], [36, 36], [38, 43]],
 "163796": [[1, 2], [4, 11], [13, 23], [25, 59], [61, 65], [69, 70], [72, 73], [77, 82], [89, 111], [118, 135], [144, 149], [158, 182]],
 "163817": [[50, 62], [64, 78], [80, 84], [86, 90], [92, 119], [121, 123], [125, 127], [131, 131], [137, 140], [154, 177], [179, 205], [216, 237], [239, 250], [252, 278], [280, 293], [305, 315], [317, 346], [358, 363], [365, 376], [378, 414], [417, 418], [423, 455], [457, 457], [561, 588], [595, 598], [601, 603], [618, 636], [639, 648], [657, 698], [707, 724], [733, 758], [767, 860], [865, 894], [897, 952], [961, 966]],
 "163869": [[79, 91], [100, 101], [118, 123]],
 "165088": [[107, 266]],
 "165098": [[124, 187], [190, 193], [195, 248], [250, 254], [256, 331], [333, 367], [369, 415]],
 "165099": [[1, 105]],
 "165102": [[1, 185]],
 "165103": [[1, 440]],
 "165120": [[82, 97]],
 "165121": [[1, 466]],
 "165205": [[80, 248]],
 "165208": [[1, 101]],
 "165364": [[45, 111], [114, 147], [160, 807], [809, 1220], [1260, 1301]],
 "165402": [[1, 27]],
 "165415": [[58, 85], [88, 640], [643, 707], [712, 777], [780, 1356], [1360, 1383]],
 "165467": [[39, 708]],
 "165472": [[1, 184], [186, 882]],
 "165486": [[37, 102]],
 "165487": [[1, 151]],
 "165506": [[54, 167]],
 "165514": [[72, 244], [246, 270], [283, 560], [562, 567]],
 "165548": [[1, 79], [95, 97], [104, 112], [125, 157], [181, 193], [215, 217], [224, 363], [365, 381], [384, 444], [448, 450], [454, 459], [472, 480], [499, 507], [514, 558], [565, 567], [577, 579], [589, 589]],
 "165558": [[1, 62]],
 "165567": [[54, 109], [114, 309], [315, 631]],
 "165570": [[1, 2], [5, 83], [88, 207], [209, 351], [355, 942], [944, 946]],
 "165617": [[26, 52], [54, 143], [145, 288]],
 "165620": [[14, 19]],
 "165633": [[56, 62], [64, 64], [66, 129], [133, 317], [319, 500]],
 "165970": [[67, 83], [86, 91], [95, 101], [114, 127], [150, 159], [172, 244], [246, 263], [266, 269], [300, 313], [320, 325]],
 "165993": [[71, 873], [879, 1660], [1665, 1697]],
 "166011": [[1, 81], [83, 83]],
 "166033": [[35, 53], [59, 256], [265, 266], [271, 272], [277, 280], [283, 284], [289, 304], [312, 330], [336, 355], [360, 444], [450, 464], [473, 478], [481, 606], [613, 634], [637, 662], [671, 676], [679, 696], [699, 707], [713, 722], [725, 740], [761, 824], [827, 862], [865, 868], [877, 878], [885, 892], [895, 1233]],
 "166034": [[1, 109], [115, 228], [234, 307]],
 "166049": [[53, 86], [88, 236], [242, 674]],
 "166149": [[1, 1]],
 "166150": [[1, 99], [101, 116]],
 "166161": [[38, 120], [122, 123], [126, 126]],
 "166163": [[1, 12], [14, 33]],
 "166164": [[1, 32], [34, 40]],
 "166346": [[48, 210], [212, 215]],
 "166374": [[46, 64], [66, 188]],
 "166380": [[1, 367], [373, 711], [715, 1400], [1406, 1809]],
 "166408": [[67, 283], [291, 947], [953, 1236]],
 "166429": [[33, 89]],
 "166438": [[32, 85], [87, 856], [858, 866]],
 "166462": [[78, 102], [108, 317], [323, 526]],
 "166486": [[54, 75], [80, 95], [97, 174]],
 "166502": [[43, 78], [83, 109]],
 "166512": [[42, 430], [432, 487], [491, 605], [611, 1279], [1281, 1818], [1821, 1862], [1868, 1868], [1870, 1871], [1873, 1874]],
 "166514": [[1, 455], [460, 464]],
 "166530": [[43, 61]],
 "166554": [[46, 218], [224, 287], [290, 317], [320, 595], [597, 730], [732, 734], [736, 736]],
 "166563": [[1, 276], [492, 748]],
 "166565": [[22, 33], [46, 147], [153, 312], [316, 421], [440, 448], [464, 467], [469, 484], [500, 502], [506, 511], [527, 606], [624, 627], [632, 663], [668, 687], [692, 707], [712, 715], [728, 731], [740, 898]],
 "166699": [[55, 156], [159, 178], [187, 188], [193, 194], [197, 204], [207, 208], [211, 234], [240, 254], [258, 282], [289, 296], [299, 308], [313, 316], [345, 352], [359, 394], [397, 399], [430, 432], [442, 477], [483, 566], [568, 576], [595, 606], [619, 636], [643, 645], [658, 660], [664, 672], [692, 694], [698, 703], [719, 826], [848, 856], [866, 880], [884, 889], [908, 912]],
 "166701": [[1, 13], [16, 319], [324, 506], [513, 551], [557, 672], [681, 705], [712, 724], [731, 757], [764, 777], [783, 792]],
 "166763": [[46, 168], [174, 650]],
 "166781": [[41, 111], [115, 115], [117, 123], [126, 151], [154, 163], [166, 175], [178, 179], [182, 189], [196, 197], [200, 233], [236, 253], [255, 382]],
 "166782": [[1, 569]],
 "166784": [[1, 114], [119, 276], [281, 365]],
 "166787": [[1, 55], [60, 127], [132, 364]],
 "166839": [[43, 173], [178, 297], [299, 302]],
 "166841": [[1, 845], [851, 876], [882, 977], [984, 984], [988, 992], [998, 1015]],
 "166842": [[1, 170]],
 "166859": [[62, 418], [421, 421], [423, 423]],
 "166860": [[1, 21]],
 "166861": [[1, 6], [8, 13]],
 "166864": [[1, 29], [31, 77], [79, 99], [102, 119], [125, 247], [249, 307], [311, 365], [367, 374], [378, 454], [478, 537]],
 "166888": [[56, 90], [93, 154], [156, 394], [398, 470]],
 "166889": [[1, 73], [79, 228]],
 "166890": [[1, 441]],
 "166894": [[1, 190]],
 "166895": [[1, 66], [72, 597], [599, 603]],
 "166911": [[58, 76], [81, 104]],
 "166922": [[1, 39], [41, 105], [110, 340], [345, 418], [423, 747], [752, 769], [773, 773]],
 "166923": [[1, 382], [389, 470]],
 "166946": [[41, 72], [75, 201]],
 "166950": [[1, 1], [8, 31], [36, 210], [216, 877], [883, 950], [956, 1012], [1018, 1321], [1327, 1345], [1347, 1438]],
 "166960": [[1, 137], [143, 166]],
 "166966": [[1, 238]],
 "166967": [[1, 220]],
 "167039": [[20, 92], [98, 228]],
 "167041": [[1, 336], [339, 391], [396, 462], [467, 663]],
 "167043": [[1, 125], [130, 235]],
 "167078": [[40, 174]],
 "167098": [[62, 90], [92, 162], [167, 406], [448, 461]],
 "167102": [[1, 42], [48, 233], [235, 317], [323, 430]],
 "167103": [[1, 93]],
 "167151": [[1, 42]],
 "167281": [[18, 140], [146, 315], [317, 593]],
 "167282": [[1, 441]],
 "167284": [[1, 315], [320, 346], [356, 395], [399, 474], [476, 1157], [1160, 1628], [1633, 1644]],
 "167551": [[56, 190], [196, 471]],
 "167673": [[210, 236], [239, 305], [309, 418], [423, 447]],
 "167674": [[1, 345]],
 "167675": [[1, 129], [133, 299], [301, 617], [690, 707], [710, 712], [715, 716], [719, 719], [721, 725], [740, 741], [748, 758], [762, 770], [774, 787], [793, 797], [811, 1062]],
 "167676": [[1, 278], [289, 450]],
 "167740": [[79, 126], [132, 168], [170, 173]],
 "167746": [[56, 383]],
 "167754": [[62, 102]],
 "167784": [[51, 67]],
 "167786": [[1, 1], [11, 75], [81, 176]],
 "167807": [[60, 159], [178, 204], [210, 482], [484, 558], [560, 872], [878, 1441], [1444, 1842]],
 "167830": [[1, 437], [442, 587], [590, 828], [834, 1242]],
 "167898": [[108, 619], [621, 995], [1001, 1010], [1013, 1053], [1057, 1295], [1298, 1762]],
 "167913": [[1, 126], [128, 432]],
 "170722": [[110, 287]],
 "170826": [[50, 122], [139, 243], [248, 308]],
 "170842": [[1, 27], [32, 96], [102, 331]],
 "170854": [[1, 336], [341, 414], [420, 470], [475, 578]],
 "170876": [[1, 110], [115, 295], [301, 516], [518, 518]],
 "170896": [[1, 212]],
 "170899": [[1, 84]],
 "170901": [[1, 153], [159, 200]],
 "171050": [[47, 74], [80, 337], [342, 369], [371, 379], [384, 423], [427, 467], [471, 648]],
 "171091": [[1, 135]],
 "171098": [[1, 8]],
 "171102": [[1, 19]],
 "171106": [[1, 27], [32, 288]],
 "171117": [[1, 54], [56, 78], [80, 84]],
 "171156": [[42, 106], [111, 686], [688, 692]],
 "171178": [[1, 92], [97, 205], [210, 551], [556, 557], [563, 787], [792, 1043]],
 "171219": [[48, 151], [153, 162]],
 "171274": [[88, 137], [140, 143]],
 "171282": [[1, 12], [14, 99], [104, 134], [140, 171]],
 "171315": [[53, 225]],
 "171369": [[42, 130], [136, 137], [144, 161]],
 "171446": [[58, 144]],
 "171484": [[61, 202], [207, 370], [377, 432]],
 "171578": [[47, 150], [156, 174], [179, 314], [320, 347], [353, 480], [487, 572], [578, 816], [821, 974]],
 "171812": [[59, 296], [301, 438]],
 "171876": [[1, 362], [368, 391], [397, 533]],
 "171880": [[19, 202]],
 "171895": [[34, 34]],
 "171897": [[1, 23], [205, 437], [442, 511], [517, 542]],
 "171921": [[51, 141]],
 "171926": [[1, 49], [51, 155], [161, 172], [177, 264]],
 "172014": [[1, 64], [66, 143], [149, 243]],
 "172024": [[1, 46]],
 "172033": [[1, 65], [71, 277], [282, 375], [380, 473], [478, 749]],
 "172163": [[36, 109], [115, 469]],
 "172208": [[61, 199]],
 "172252": [[32, 54]],
 "172254": [[1, 35]],
 "172255": [[1, 40]],
 "172268": [[56, 169]],
 "172286": [[52, 177], [184, 216]],
 "172389": [[34, 144], [150, 428], [434, 460]],
 "172399": [[57, 226]],
 "172400": [[1, 495], [500, 690], [696, 704]],
 "172401": [[1, 2], [5, 148]],
 "172411": [[85, 349]],
 "172478": [[1, 110]],
 "172619": [[1, 77]]}
