mv 250_hypo/signal_muon_08_cutset ~/Documents/group_meetings/20091014/fig/175/250_hypo/
mv 250_hypo/background_muon_08_cutset ~/Documents/group_meetings/20091014/fig/175/250_hypo/

mv 300_hypo/signal_muon_08_cutset ~/Documents/group_meetings/20091014/fig/175/300_hypo/
mv 300_hypo/background_muon_08_cutset ~/Documents/group_meetings/20091014/fig/175/300_hypo/

mv 350_hypo/signal_muon_08_cutset ~/Documents/group_meetings/20091014/fig/175/350_hypo/
mv 350_hypo/background_muon_08_cutset ~/Documents/group_meetings/20091014/fig/175/350_hypo/

mv 400_hypo/signal_muon_08_cutset ~/Documents/group_meetings/20091014/fig/175/400_hypo/
mv 400_hypo/background_muon_08_cutset ~/Documents/group_meetings/20091014/fig/175/400_hypo/
